<?xml version="1.0" encoding="utf-8"?>
<!-- Generator: Adobe Illustrator 25.0.1, SVG Export Plug-In . SVG Version: 6.00 Build 0)  -->
<svg version="1.1" id="logo.branchet-simple" xmlns="http://www.w3.org/2000/svg" xmlns:xlink="http://www.w3.org/1999/xlink"
	 x="0px" y="0px" width="260px" height="33px" viewBox="0 0 260 33" style="enable-background:new 0 0 260 33;"
	 xml:space="preserve">
<style type="text/css">
	.st0{fill:#FFFFFF;}
	.st1{fill:#00A0DF;}
</style>
<g>
	<path id="Tracé_2395" class="st0" d="M0,0.5h14.8c3.6,0,6.5,1,8.3,2.8c1.5,1.4,2.2,3.4,2.2,5.4v0.1c0.1,2.9-1.6,5.6-4.2,6.9
		c3.7,1.4,6,3.6,6,7.8v0.1c0,5.8-4.7,8.8-11.9,8.8H0 M18.3,10c0-2.1-1.6-3.3-4.6-3.3H6.8v6.7h6.5C16.4,13.5,18.3,12.5,18.3,10
		L18.3,10z M14.9,19.3H6.8v7h8.3c3.1,0,5-1.1,5-3.5v-0.1C20.1,20.6,18.5,19.3,14.9,19.3"/>
	<path id="Tracé_2396" class="st0" d="M32.8,0.5h14.5c4,0,7.2,1.1,9.3,3.2c1.9,2,2.8,4.6,2.7,7.3v0.1c0.2,4.5-2.6,8.5-6.8,9.9
		l7.8,11.4h-8.2l-6.8-10.2h-5.5v10.2h-7 M46.9,16c3.4,0,5.4-1.8,5.4-4.5v-0.1c0-3-2.1-4.6-5.5-4.6h-7V16H46.9z"/>
	<path id="Tracé_2397" class="st0" d="M101.5,0.5h6.5l14.9,19.7V0.5h6.9v31.9h-6l-15.4-20.3v20.3h-6.9"/>
	<path id="Tracé_2398" class="st0" d="M136,16.6v-0.1c-0.2-8.9,6.9-16.3,15.9-16.5l0,0h0.7c6,0,9.6,2,12.5,4.9l-4.4,5.2
		c-2.4-2.2-4.9-3.6-8.1-3.6c-5.4,0-9.2,4.5-9.2,9.9v0.1c0,5.5,3.8,10,9.2,10c3.6,0,5.9-1.5,8.4-3.7l4.4,4.5c-3.2,3.8-8,5.9-13,5.7
		c-8.9,0.2-16.2-6.9-16.4-15.8l0,0C136,17,136,16.8,136,16.6"/>
	<path id="Tracé_2399" class="st0" d="M171,0.5h7v12.6h12.9V0.5h7v31.9h-7V19.6H178v12.8h-7"/>
	<path id="Tracé_2400" class="st0" d="M205.5,0.5h24v6.2h-17v6.5h15v6.2h-15v6.7h17.3v6.2h-24.3"/>
	<path id="Tracé_2401" class="st0" d="M243.3,7h-9.7V0.5H260V7h-9.7v25.5h-7"/>
	<path id="Tracé_2402" class="st1" d="M79.7,8.7l-9.6,23.7H63L76.6,0.3H83l13.6,32.2h-7.3"/>
</g>
</svg>
