<?xml version="1.0" encoding="utf-8"?>
<!-- Generator: Adobe Illustrator 25.0.1, SVG Export Plug-In . SVG Version: 6.00 Build 0)  -->
<svg version="1.1" id="mail" xmlns="http://www.w3.org/2000/svg" xmlns:xlink="http://www.w3.org/1999/xlink" x="0px" y="0px"
	 width="20px" height="13px" viewBox="0 0 20 13" style="enable-background:new 0 0 20 13;" xml:space="preserve">
<style type="text/css">
	.st0{fill:#FFFFFF;}
</style>
<path id="Tracé_4629" class="st0" d="M13.7,6.2l6.3,6.1V1.2L13.7,6.2z"/>
<path id="Tracé_4630" class="st0" d="M0.7,0L10,7.4L19.3,0H0.7z"/>
<path id="Tracé_4631" class="st0" d="M0,1.2v11.1l6.3-6.1L0,1.2z"/>
<path id="Tracé_4632" class="st0" d="M12.6,7.1l-2.2,1.8C10.2,9,9.8,9,9.6,8.8L7.4,7.1L1.2,13h17.6L12.6,7.1z"/>
</svg>
