<?xml version="1.0" encoding="utf-8"?>
<!-- Generator: Adobe Illustrator 25.0.1, SVG Export Plug-In . SVG Version: 6.00 Build 0)  -->
<svg version="1.1" id="bg-header" xmlns="http://www.w3.org/2000/svg" xmlns:xlink="http://www.w3.org/1999/xlink" x="0px" y="0px"
	 width="1440px" height="140px" viewBox="0 0 1440 140" style="enable-background:new 0 0 1440 140;" xml:space="preserve">
<style type="text/css">
	.st0{fill:url(#bg_1_);}
</style>
<linearGradient id="bg_1_" gradientUnits="userSpaceOnUse" x1="283.6995" y1="170.8419" x2="284.6928" y2="171.0917" gradientTransform="matrix(-1441.5 0 0 136.5803 410389.25 -23282.8809)">
	<stop  offset="0" style="stop-color:#0D2A58"/>
	<stop  offset="1" style="stop-color:#004F99"/>
</linearGradient>
<path id="bg" class="st0" d="M1440,0H0v112.9c0,0,284.9,40.1,721.5,22.8c515.8-21.4,718.5,0,718.5,0V0z"/>
</svg>
